{
    "0": {
        "benchmarks": {
            "loading.desktop": {
                "abridged": true
            }
        }
    },
    "extra_infos": {
        "num_stories": 10,
        "predicted_min_shard_time": 492.0,
        "predicted_min_shard_index": 0,
        "predicted_max_shard_time": 492.0,
        "predicted_max_shard_index": 0,
        "shard #0": 492.0
    }
}