{
    "0": {
        "benchmarks": {
            "blink_perf.accessibility": {
                "abridged": false
            },
            "blink_perf.bindings": {
                "abridged": false
            },
            "blink_perf.css": {
                "abridged": false
            },
            "blink_perf.display_locking": {
                "abridged": false
            },
            "blink_perf.dom": {
                "abridged": false
            },
            "blink_perf.events": {
                "end": 2,
                "abridged": false
            }
        }
    },
    "1": {
        "benchmarks": {
            "blink_perf.events": {
                "begin": 2,
                "abridged": false
            },
            "blink_perf.image_decoder": {
                "abridged": false
            },
            "blink_perf.layout": {
                "abridged": false
            },
            "blink_perf.owp_storage": {
                "abridged": false
            },
            "blink_perf.paint": {
                "end": 4,
                "abridged": false
            }
        }
    },
    "2": {
        "benchmarks": {
            "blink_perf.paint": {
                "begin": 4,
                "abridged": false
            },
            "blink_perf.parser": {
                "abridged": false
            },
            "blink_perf.shadow_dom": {
                "abridged": false
            },
            "blink_perf.svg": {
                "abridged": false
            },
            "blink_perf.webaudio": {
                "abridged": false
            },
            "dromaeo": {
                "abridged": false
            },
            "dummy_benchmark.noisy_benchmark_1": {
                "abridged": false
            },
            "dummy_benchmark.stable_benchmark_1": {
                "abridged": false
            },
            "jetstream": {
                "abridged": false
            },
            "kraken": {
                "abridged": false
            }
        },
        "executables": {
            "load_library_perf_tests": {
                "path": "load_library_perf_tests"
            }
        }
    },
    "3": {
        "benchmarks": {
            "loading.desktop": {
                "end": 27,
                "abridged": false
            }
        }
    },
    "4": {
        "benchmarks": {
            "loading.desktop": {
                "begin": 27,
                "end": 51,
                "abridged": false
            }
        }
    },
    "5": {
        "benchmarks": {
            "loading.desktop": {
                "begin": 51,
                "end": 73,
                "abridged": false
            }
        }
    },
    "6": {
        "benchmarks": {
            "loading.desktop": {
                "begin": 73,
                "end": 95,
                "abridged": false
            }
        }
    },
    "7": {
        "benchmarks": {
            "loading.desktop": {
                "begin": 95,
                "abridged": false
            },
            "media.desktop": {
                "abridged": false
            },
            "memory.desktop": {
                "end": 3,
                "abridged": false
            }
        }
    },
    "8": {
        "benchmarks": {
            "memory.desktop": {
                "begin": 3,
                "abridged": false
            },
            "octane": {
                "abridged": false
            },
            "power.desktop": {
                "end": 7,
                "abridged": false
            }
        },
        "executables": {
            "performance_browser_tests": {
                "path": "browser_tests",
                "arguments": [
                    "--full-performance-run",
                    "--test-launcher-jobs=1",
                    "--test-launcher-retry-limit=0",
                    "--ui-test-action-timeout=60000",
                    "--ui-test-action-max-timeout=60000",
                    "--test-launcher-timeout=60000",
                    "--gtest_filter=*/TabCapturePerformanceTest.*:*/CastV2PerformanceTest.*"
                ]
            }
        }
    },
    "9": {
        "benchmarks": {
            "power.desktop": {
                "begin": 7,
                "abridged": false
            },
            "rasterize_and_record_micro.top_25": {
                "abridged": false
            },
            "rendering.desktop": {
                "end": 23,
                "abridged": false
            }
        }
    },
    "10": {
        "benchmarks": {
            "rendering.desktop": {
                "begin": 23,
                "end": 72,
                "abridged": false
            }
        }
    },
    "11": {
        "benchmarks": {
            "rendering.desktop": {
                "begin": 72,
                "end": 124,
                "abridged": false
            }
        }
    },
    "12": {
        "benchmarks": {
            "rendering.desktop": {
                "begin": 124,
                "end": 172,
                "abridged": false
            }
        }
    },
    "13": {
        "benchmarks": {
            "rendering.desktop": {
                "begin": 172,
                "end": 221,
                "abridged": false
            }
        }
    },
    "14": {
        "benchmarks": {
            "rendering.desktop": {
                "begin": 221,
                "end": 265,
                "abridged": false
            }
        }
    },
    "15": {
        "benchmarks": {
            "rendering.desktop": {
                "begin": 265,
                "abridged": false
            },
            "speedometer": {
                "abridged": false
            },
            "speedometer-future": {
                "abridged": false
            },
            "speedometer2": {
                "abridged": false
            },
            "speedometer2-future": {
                "abridged": false
            },
            "system_health.common_desktop": {
                "end": 3,
                "abridged": false
            }
        }
    },
    "16": {
        "benchmarks": {
            "system_health.common_desktop": {
                "begin": 3,
                "end": 42,
                "abridged": false
            }
        }
    },
    "17": {
        "benchmarks": {
            "system_health.common_desktop": {
                "begin": 42,
                "end": 75,
                "abridged": false
            }
        }
    },
    "18": {
        "benchmarks": {
            "system_health.common_desktop": {
                "begin": 75,
                "abridged": false
            },
            "system_health.memory_desktop": {
                "end": 14,
                "abridged": false
            }
        }
    },
    "19": {
        "benchmarks": {
            "system_health.memory_desktop": {
                "begin": 14,
                "end": 28,
                "abridged": false
            }
        }
    },
    "20": {
        "benchmarks": {
            "system_health.memory_desktop": {
                "begin": 28,
                "end": 48,
                "abridged": false
            }
        }
    },
    "21": {
        "benchmarks": {
            "system_health.memory_desktop": {
                "begin": 48,
                "end": 69,
                "abridged": false
            }
        }
    },
    "22": {
        "benchmarks": {
            "system_health.memory_desktop": {
                "begin": 69,
                "end": 77,
                "abridged": false
            }
        }
    },
    "23": {
        "benchmarks": {
            "system_health.memory_desktop": {
                "begin": 77,
                "abridged": false
            },
            "tab_switching.typical_25": {
                "abridged": false
            },
            "tracing.tracing_with_background_memory_infra": {
                "abridged": false
            },
            "v8.browsing_desktop": {
                "end": 15,
                "abridged": false
            }
        }
    },
    "24": {
        "benchmarks": {
            "v8.browsing_desktop": {
                "begin": 15,
                "abridged": false
            },
            "v8.browsing_desktop-future": {
                "end": 10,
                "abridged": false
            }
        }
    },
    "25": {
        "benchmarks": {
            "v8.browsing_desktop-future": {
                "begin": 10,
                "abridged": false
            },
            "webrtc": {
                "abridged": false
            }
        }
    },
    "extra_infos": {
        "num_stories": 1069,
        "predicted_min_shard_time": 1262.0,
        "predicted_min_shard_index": 6,
        "predicted_max_shard_time": 1331.0,
        "predicted_max_shard_index": 23,
        "shard #0": 1290.0,
        "shard #1": 1295.0,
        "shard #2": 1269.0,
        "shard #3": 1308.0,
        "shard #4": 1298.0,
        "shard #5": 1318.0,
        "shard #6": 1262.0,
        "shard #7": 1272.0,
        "shard #8": 1309.0,
        "shard #9": 1281.0,
        "shard #10": 1286.0,
        "shard #11": 1284.0,
        "shard #12": 1304.0,
        "shard #13": 1277.0,
        "shard #14": 1307.0,
        "shard #15": 1298.0,
        "shard #16": 1308.0,
        "shard #17": 1268.0,
        "shard #18": 1264.0,
        "shard #19": 1302.0,
        "shard #20": 1326.0,
        "shard #21": 1263.0,
        "shard #22": 1281.0,
        "shard #23": 1331.0,
        "shard #24": 1315.0,
        "shard #25": 1286.0
    }
}