{
    "trace_processor_shell": {
        "win": {
            "hash": "bfdb6057bef6817a2dde5a68acd2e3852a05ff62",
            "remote_path": "perfetto_binaries/trace_processor_shell/win/2d31db0b3751edccd984896321db1014b8bd26d5/trace_processor_shell.exe"
        },
        "mac": {
            "hash": "fc50aba2bda1b92a35ddce6e7cfa0fcba40b010d",
            "remote_path": "perfetto_binaries/trace_processor_shell/mac/021b77e7f0c77ed09851495f9e068f09cf8331d2/trace_processor_shell"
        },
        "linux": {
            "hash": "e71b6aa765b3005bdc9590921a7b9a3b42776905",
            "remote_path": "perfetto_binaries/trace_processor_shell/linux/3a578ae352335947ee862d0a9ebc0a70e71902b0/trace_processor_shell"
        }
    },
    "power_profile.sql": {
        "hash": "5bc5eae952c72d04403409a56838f66da13394d6",
        "remote_path": "perfetto_data/power_profile.sql/20200713T171147/power_profile.sql"
    }
}