{
  "Cast Audio Linux": {
    "gn_args": {
      "is_cast_audio_only": true,
      "is_chromecast": true,
      "is_component_build": false,
      "is_debug": false,
      "symbol_level": 1,
      "use_goma": true
    }
  },
  "Cast Linux": {
    "gn_args": {
      "is_chromecast": true,
      "is_component_build": false,
      "is_debug": false,
      "symbol_level": 1,
      "use_goma": true
    }
  },
  "Deterministic Fuchsia (dbg)": {
    "gn_args": {
      "is_component_build": true,
      "is_debug": true,
      "symbol_level": 1,
      "target_os": "fuchsia",
      "use_goma": true
    }
  },
  "Deterministic Linux": {
    "gn_args": {
      "is_component_build": false,
      "is_debug": false,
      "symbol_level": 1,
      "use_goma": true
    }
  },
  "Deterministic Linux (dbg)": {
    "goma": {
      "is_component_build": true,
      "is_debug": true,
      "symbol_level": 1,
      "use_goma": true
    },
    "local": {
      "is_component_build": true,
      "is_debug": true,
      "symbol_level": 1
    }
  },
  "Fuchsia ARM64": {
    "gn_args": {
      "is_component_build": false,
      "is_debug": false,
      "target_cpu": "arm64",
      "target_os": "fuchsia",
      "use_goma": true
    }
  },
  "Fuchsia x64": {
    "gn_args": {
      "is_component_build": false,
      "is_debug": false,
      "target_os": "fuchsia",
      "use_goma": true
    }
  },
  "Leak Detection Linux": {
    "gn_args": {
      "is_component_build": false,
      "is_debug": false,
      "use_goma": true
    }
  },
  "Linux Builder": {
    "gn_args": {
      "ffmpeg_branding": "Chrome",
      "is_component_build": false,
      "is_debug": false,
      "proprietary_codecs": true,
      "use_goma": true
    }
  },
  "Linux Builder (dbg)": {
    "gn_args": {
      "ffmpeg_branding": "Chrome",
      "is_component_build": true,
      "is_debug": true,
      "proprietary_codecs": true,
      "symbol_level": 1,
      "use_goma": true
    }
  },
  "Linux Builder (dbg)(32)": {
    "gn_args": {
      "ffmpeg_branding": "Chrome",
      "is_component_build": true,
      "is_debug": true,
      "proprietary_codecs": true,
      "symbol_level": 1,
      "target_cpu": "x86",
      "use_goma": true
    }
  },
  "Network Service Linux": {
    "gn_args": {
      "is_component_build": false,
      "is_debug": false,
      "use_goma": true
    }
  },
  "fuchsia-arm64-cast": {
    "gn_args": {
      "is_chromecast": true,
      "is_component_build": false,
      "is_debug": false,
      "symbol_level": 0,
      "target_cpu": "arm64",
      "target_os": "fuchsia",
      "use_goma": true
    }
  },
  "fuchsia-x64-cast": {
    "gn_args": {
      "is_chromecast": true,
      "is_component_build": false,
      "is_debug": false,
      "symbol_level": 0,
      "target_os": "fuchsia",
      "use_goma": true
    }
  },
  "fuchsia-x64-dbg": {
    "gn_args": {
      "is_component_build": true,
      "is_debug": true,
      "symbol_level": 0,
      "target_os": "fuchsia",
      "use_goma": true
    }
  },
  "linux-bfcache-rel": {
    "gn_args": {
      "ffmpeg_branding": "Chrome",
      "is_component_build": false,
      "is_debug": false,
      "proprietary_codecs": true,
      "use_goma": true
    }
  },
  "linux-gcc-rel": {
    "gn_args": {
      "is_clang": false,
      "is_component_build": false,
      "is_debug": false,
      "symbol_level": 1,
      "target_cpu": "x86",
      "use_cxx11": true,
      "use_goma": false
    }
  },
  "linux-ozone-rel": {
    "gn_args": {
      "is_component_build": false,
      "is_debug": false,
      "ozone_platform": "headless",
      "use_bundled_weston": true,
      "use_goma": true,
      "use_ozone": true
    }
  },
  "linux-trusty-rel": {
    "gn_args": {
      "ffmpeg_branding": "Chrome",
      "is_component_build": false,
      "is_debug": false,
      "proprietary_codecs": true,
      "use_goma": true
    }
  }
}