{
    "archives": {
        "accu_weather_2018": {
            "DEFAULT": "rendering_mobile_000.wprgo"
        },
        "accu_weather_desktop_gpu_raster_2018": {
            "DEFAULT": "rendering_mobile_000.wprgo"
        },
        "accu_weather_mobile_pinch_2018": {
            "DEFAULT": "rendering_mobile_c47e7f29dd.wprgo"
        },
        "amazon_2018": {
            "DEFAULT": "rendering_mobile_000.wprgo"
        },
        "amazon_desktop_gpu_raster_2018": {
            "DEFAULT": "rendering_mobile_000.wprgo"
        },
        "amazon_mobile_2018": {
            "DEFAULT": "rendering_mobile_011.wprgo"
        },
        "analog_clock_svg": {
            "DEFAULT": "rendering_mobile_002.wprgo"
        },
        "androidpolice_mobile_2018": {
            "DEFAULT": "rendering_mobile_011.wprgo"
        },
        "animometer_webgl": {
            "DEFAULT": "rendering_mobile_026.wprgo"
        },
        "animometer_webgl_attrib_arrays": {
            "DEFAULT": "rendering_mobile_b57f8cb43c.wprgo"
        },
        "animometer_webgl_multi_draw": {
            "DEFAULT": "rendering_mobile_490dc1e73f.wprgo"
        },
        "aquarium": {
            "DEFAULT": "rendering_mobile_026.wprgo"
        },
        "aquarium_20k": {
            "DEFAULT": "rendering_mobile_026.wprgo"
        },
        "baidu_mobile_2018": {
            "DEFAULT": "rendering_mobile_011.wprgo"
        },
        "basic_stream": {
            "DEFAULT": "rendering_mobile_019.wprgo"
        },
        "bing_mobile_2018": {
            "DEFAULT": "rendering_mobile_011.wprgo"
        },
        "blob": {
            "DEFAULT": "rendering_mobile_026.wprgo"
        },
        "blogspot_2018": {
            "DEFAULT": "rendering_mobile_000.wprgo"
        },
        "blogspot_desktop_gpu_raster_2018": {
            "DEFAULT": "rendering_mobile_000.wprgo"
        },
        "blogspot_mobile_2018": {
            "DEFAULT": "rendering_mobile_011.wprgo"
        },
        "boingboing_mobile_2018": {
            "DEFAULT": "rendering_mobile_011.wprgo"
        },
        "booking.com_2018": {
            "DEFAULT": "rendering_mobile_000.wprgo"
        },
        "booking.com_desktop_gpu_raster_2018": {
            "DEFAULT": "rendering_mobile_000.wprgo"
        },
        "booking.com_mobile_2018": {
            "DEFAULT": "rendering_mobile_011.wprgo"
        },
        "camera_to_webgl": {
            "DEFAULT": "rendering_mobile_026.wprgo"
        },
        "capitolvolkswagen_mobile_2018": {
            "DEFAULT": "rendering_mobile_011.wprgo"
        },
        "card_expansion": {
            "DEFAULT": "rendering_mobile_020.wprgo"
        },
        "card_expansion_animated": {
            "DEFAULT": "rendering_mobile_020.wprgo"
        },
        "card_expansion_images_text": {
            "DEFAULT": "rendering_mobile_021.wprgo"
        },
        "card_flying": {
            "DEFAULT": "rendering_mobile_020.wprgo"
        },
        "cats_unscaled": {
            "DEFAULT": "rendering_mobile_008.wprgo"
        },
        "cats_viewport_width": {
            "DEFAULT": "rendering_mobile_008.wprgo"
        },
        "cc_poster_circle": {
            "DEFAULT": "rendering_mobile_009.wprgo"
        },
        "cc_scroll_200_layer_grid": {
            "DEFAULT": "rendering_mobile_009.wprgo"
        },
        "cc_scroll_text_only": {
            "DEFAULT": "rendering_mobile_009.wprgo"
        },
        "chip_tune": {
            "DEFAULT": "rendering_mobile_004.wprgo"
        },
        "cnn_2018": {
            "DEFAULT": "rendering_mobile_000.wprgo"
        },
        "cnn_article_mobile_2018": {
            "DEFAULT": "rendering_mobile_011.wprgo"
        },
        "cnn_desktop_gpu_raster_2018": {
            "DEFAULT": "rendering_mobile_000.wprgo"
        },
        "cnn_mobile_2018": {
            "DEFAULT": "rendering_mobile_011.wprgo"
        },
        "cnn_mobile_pinch_2018": {
            "DEFAULT": "rendering_mobile_c47e7f29dd.wprgo"
        },
        "cnn_pathological_2018": {
            "DEFAULT": "rendering_mobile_025.wprgo"
        },
        "coordinated_animation": {
            "DEFAULT": "rendering_mobile_020.wprgo"
        },
        "core_scroll_header_panel": {
            "DEFAULT": "rendering_mobile_017.wprgo"
        },
        "crafty_mind": {
            "DEFAULT": "rendering_mobile_004.wprgo"
        },
        "deviantart_mobile_2018": {
            "DEFAULT": "rendering_mobile_011.wprgo"
        },
        "digg_mobile_2018": {
            "DEFAULT": "rendering_mobile_011.wprgo"
        },
        "dynamic_cube_map": {
            "DEFAULT": "rendering_mobile_026.wprgo"
        },
        "earth": {
            "DEFAULT": "rendering_mobile_026.wprgo"
        },
        "ebay_2018": {
            "DEFAULT": "rendering_mobile_000.wprgo"
        },
        "ebay_desktop_gpu_raster_2018": {
            "DEFAULT": "rendering_mobile_000.wprgo"
        },
        "ebay_mobile_2018": {
            "DEFAULT": "rendering_mobile_011.wprgo"
        },
        "ebay_mobile_pinch_2018": {
            "DEFAULT": "rendering_mobile_c47e7f29dd.wprgo"
        },
        "ebay_scroll_2018": {
            "DEFAULT": "rendering_mobile_016.wprgo"
        },
        "effect_games": {
            "DEFAULT": "rendering_mobile_004.wprgo"
        },
        "espn_2018": {
            "DEFAULT": "rendering_mobile_000.wprgo"
        },
        "espn_desktop_gpu_raster_2018": {
            "DEFAULT": "rendering_mobile_000.wprgo"
        },
        "espn_mobile_2018": {
            "DEFAULT": "rendering_mobile_011.wprgo"
        },
        "espn_pathological_2018": {
            "DEFAULT": "rendering_mobile_025.wprgo"
        },
        "facebook_2018": {
            "DEFAULT": "rendering_mobile_000.wprgo"
        },
        "facebook_desktop_gpu_raster_2018": {
            "DEFAULT": "rendering_mobile_000.wprgo"
        },
        "facebook_mobile_2018": {
            "DEFAULT": "rendering_mobile_011.wprgo"
        },
        "famo_us_twitter_demo": {
            "DEFAULT": "rendering_mobile_019.wprgo"
        },
        "filter_terrain_svg": {
            "DEFAULT": "rendering_mobile_002.wprgo"
        },
        "flickr_scroll_2018": {
            "DEFAULT": "rendering_mobile_016.wprgo"
        },
        "forecast.io_mobile_2018": {
            "DEFAULT": "rendering_mobile_011.wprgo"
        },
        "geo_apis": {
            "DEFAULT": "rendering_mobile_004.wprgo"
        },
        "gmail_2018": {
            "DEFAULT": "rendering_mobile_000.wprgo"
        },
        "gmail_desktop_gpu_raster_2018": {
            "DEFAULT": "rendering_mobile_000.wprgo"
        },
        "google_calendar_2018": {
            "DEFAULT": "rendering_mobile_000.wprgo"
        },
        "google_calendar_desktop_gpu_raster_2018": {
            "DEFAULT": "rendering_mobile_000.wprgo"
        },
        "google_docs_2018": {
            "DEFAULT": "rendering_mobile_000.wprgo"
        },
        "google_docs_desktop_gpu_raster_2018": {
            "DEFAULT": "rendering_mobile_000.wprgo"
        },
        "google_image_search_2018": {
            "DEFAULT": "rendering_mobile_000.wprgo"
        },
        "google_image_search_desktop_gpu_raster_2018": {
            "DEFAULT": "rendering_mobile_000.wprgo"
        },
        "google_image_search_mobile_2018": {
            "DEFAULT": "rendering_mobile_015.wprgo"
        },
        "google_news_ios": {
            "DEFAULT": "rendering_mobile_019.wprgo"
        },
        "google_news_mobile_2018": {
            "DEFAULT": "rendering_mobile_013.wprgo"
        },
        "google_plus_2018": {
            "DEFAULT": "rendering_mobile_000.wprgo"
        },
        "google_plus_desktop_gpu_raster_2018": {
            "DEFAULT": "rendering_mobile_000.wprgo"
        },
        "google_plus_mobile_2018": {
            "DEFAULT": "rendering_mobile_011.wprgo"
        },
        "google_search_mobile_pinch_2018": {
            "DEFAULT": "rendering_mobile_c47e7f29dd.wprgo"
        },
        "google_web_search_2018": {
            "DEFAULT": "rendering_mobile_000.wprgo"
        },
        "google_web_search_desktop_gpu_raster_2018": {
            "DEFAULT": "rendering_mobile_000.wprgo"
        },
        "google_web_search_mobile_2018": {
            "DEFAULT": "rendering_mobile_011.wprgo"
        },
        "gsp.ro_mobile_2018": {
            "DEFAULT": "rendering_mobile_014.wprgo"
        },
        "guardian_pathological_2018": {
            "DEFAULT": "rendering_mobile_025.wprgo"
        },
        "guimark_vector_chart": {
            "DEFAULT": "rendering_mobile_003.wprgo"
        },
        "gws_boogie_expansion": {
            "DEFAULT": "rendering_mobile_023.wprgo"
        },
        "gws_google_expansion": {
            "DEFAULT": "rendering_mobile_019.wprgo"
        },
        "hakim": {
            "DEFAULT": "rendering_mobile_004.wprgo"
        },
        "horizontal_vertical_expansion": {
            "DEFAULT": "rendering_mobile_020.wprgo"
        },
        "ie_chalkboard": {
            "DEFAULT": "rendering_mobile_003.wprgo"
        },
        "ie_pirate_mark": {
            "DEFAULT": "rendering_mobile_002.wprgo"
        },
        "jarro_doverson": {
            "DEFAULT": "rendering_mobile_004.wprgo"
        },
        "js_full_screen_invalidation": {
            "DEFAULT": "rendering_mobile_009.wprgo"
        },
        "js_poster_circle": {
            "DEFAULT": "rendering_mobile_009.wprgo"
        },
        "js_scroll_200_layer_grid": {
            "DEFAULT": "rendering_mobile_009.wprgo"
        },
        "js_scroll_text_only": {
            "DEFAULT": "rendering_mobile_009.wprgo"
        },
        "kevs_3d": {
            "DEFAULT": "rendering_mobile_004.wprgo"
        },
        "latimes_pathological_2018": {
            "DEFAULT": "rendering_mobile_025.wprgo"
        },
        "linkedin_2018": {
            "DEFAULT": "rendering_mobile_d5f51fba2e.wprgo"
        },
        "linkedin_desktop_gpu_raster_2018": {
            "DEFAULT": "rendering_mobile_fae11cb2b3.wprgo"
        },
        "linkedin_mobile_2018": {
            "DEFAULT": "rendering_mobile_d5f51fba2e.wprgo"
        },
        "linkedin_mobile_pinch_2018": {
            "DEFAULT": "rendering_mobile_c47e7f29dd.wprgo"
        },
        "linkedin_pathological_2018": {
            "DEFAULT": "rendering_mobile_d5f51fba2e.wprgo"
        },
        "list_recycle_transform": {
            "DEFAULT": "rendering_mobile_018.wprgo"
        },
        "lost_crypt": {
            "DEFAULT": "rendering_mobile_fb80bbcb6f.wprgo"
        },
        "man_in_blue": {
            "DEFAULT": "rendering_mobile_004.wprgo"
        },
        "many_planets_deep": {
            "DEFAULT": "rendering_mobile_026.wprgo"
        },
        "mask_transition_animation": {
            "DEFAULT": "rendering_mobile_020.wprgo"
        },
        "megi_dish": {
            "DEFAULT": "rendering_mobile_004.wprgo"
        },
        "microgame_fps": {
            "DEFAULT": "rendering_mobile_fb80bbcb6f.wprgo"
        },
        "microsoft_asteroid_belt": {
            "DEFAULT": "rendering_mobile_004.wprgo"
        },
        "microsoft_fireflies": {
            "DEFAULT": "rendering_mobile_004.wprgo"
        },
        "microsoft_fish_ie_tank": {
            "DEFAULT": "rendering_mobile_004.wprgo"
        },
        "microsoft_performance": {
            "DEFAULT": "rendering_mobile_005.wprgo"
        },
        "microsoft_snow": {
            "DEFAULT": "rendering_mobile_004.wprgo"
        },
        "microsoft_speed_reading": {
            "DEFAULT": "rendering_mobile_004.wprgo"
        },
        "microsoft_tweet_map": {
            "DEFAULT": "rendering_mobile_004.wprgo"
        },
        "microsoft_video_city": {
            "DEFAULT": "rendering_mobile_004.wprgo"
        },
        "microsoft_worker_fountains": {
            "DEFAULT": "rendering_mobile_004.wprgo"
        },
        "mix_10k": {
            "DEFAULT": "rendering_mobile_004.wprgo"
        },
        "mlb_mobile_2018": {
            "DEFAULT": "rendering_mobile_011.wprgo"
        },
        "mobile_news_sandbox": {
            "DEFAULT": "rendering_mobile_019.wprgo"
        },
        "motion_mark_canvas_fill_shapes": {
            "DEFAULT": "rendering_mobile_003.wprgo"
        },
        "motion_mark_canvas_stroke_shapes": {
            "DEFAULT": "rendering_mobile_003.wprgo"
        },
        "motion_mark_focus": {
            "DEFAULT": "rendering_mobile_002.wprgo"
        },
        "motionmark_anim_design_15": {
            "DEFAULT": "rendering_mobile_f7f3ea1d6e.wprgo"
        },
        "motionmark_anim_focus_25": {
            "DEFAULT": "rendering_mobile_f7f3ea1d6e.wprgo"
        },
        "motionmark_anim_images_50": {
            "DEFAULT": "rendering_mobile_f7f3ea1d6e.wprgo"
        },
        "motionmark_anim_leaves_250": {
            "DEFAULT": "rendering_mobile_f7f3ea1d6e.wprgo"
        },
        "motionmark_anim_multiply_175": {
            "DEFAULT": "rendering_mobile_f7f3ea1d6e.wprgo"
        },
        "motionmark_anim_suits_125": {
            "DEFAULT": "rendering_mobile_f7f3ea1d6e.wprgo"
        },
        "motionmark_html_composited_transforms_125": {
            "DEFAULT": "rendering_mobile_f7f3ea1d6e.wprgo"
        },
        "motionmark_html_css_bouncing_blend_circles_25": {
            "DEFAULT": "rendering_mobile_f7f3ea1d6e.wprgo"
        },
        "motionmark_html_css_bouncing_circles_250": {
            "DEFAULT": "rendering_mobile_f7f3ea1d6e.wprgo"
        },
        "motionmark_html_css_bouncing_clipped_rects_100": {
            "DEFAULT": "rendering_mobile_f7f3ea1d6e.wprgo"
        },
        "motionmark_html_css_bouncing_filter_circles_15": {
            "DEFAULT": "rendering_mobile_f7f3ea1d6e.wprgo"
        },
        "motionmark_html_css_bouncing_gradient_circles_250": {
            "DEFAULT": "rendering_mobile_f7f3ea1d6e.wprgo"
        },
        "motionmark_html_css_bouncing_svg_images_50": {
            "DEFAULT": "rendering_mobile_f7f3ea1d6e.wprgo"
        },
        "motionmark_html_css_bouncing_tagged_images_225": {
            "DEFAULT": "rendering_mobile_f7f3ea1d6e.wprgo"
        },
        "motionmark_html_dom_particles_svg_masks_25": {
            "DEFAULT": "rendering_mobile_f7f3ea1d6e.wprgo"
        },
        "motionmark_html_focus_20_15": {
            "DEFAULT": "rendering_mobile_f7f3ea1d6e.wprgo"
        },
        "motionmark_html_leaves_20_50": {
            "DEFAULT": "rendering_mobile_f7f3ea1d6e.wprgo"
        },
        "motionmark_svg_bouncing_circles_250": {
            "DEFAULT": "rendering_mobile_f7f3ea1d6e.wprgo"
        },
        "motionmark_svg_bouncing_clipped_rects_100": {
            "DEFAULT": "rendering_mobile_f7f3ea1d6e.wprgo"
        },
        "motionmark_svg_bouncing_gradient_circles_200": {
            "DEFAULT": "rendering_mobile_f7f3ea1d6e.wprgo"
        },
        "motionmark_svg_bouncing_png_images_200": {
            "DEFAULT": "rendering_mobile_f7f3ea1d6e.wprgo"
        },
        "motionmark_svg_bouncing_svg_images_50": {
            "DEFAULT": "rendering_mobile_f7f3ea1d6e.wprgo"
        },
        "new_tilings": {
            "DEFAULT": "rendering_mobile_010.wprgo"
        },
        "nvidia_vertex_buffer_object": {
            "DEFAULT": "rendering_mobile_026.wprgo"
        },
        "nyc_gov_scroll_2018": {
            "DEFAULT": "rendering_mobile_016.wprgo"
        },
        "nytimes_mobile_2018": {
            "DEFAULT": "rendering_mobile_011.wprgo"
        },
        "nytimes_scroll_2018": {
            "DEFAULT": "rendering_mobile_016.wprgo"
        },
        "paper_button": {
            "DEFAULT": "rendering_mobile_017.wprgo"
        },
        "paper_calculator": {
            "DEFAULT": "rendering_mobile_017.wprgo"
        },
        "paper_checkbox": {
            "DEFAULT": "rendering_mobile_017.wprgo"
        },
        "paper_fab": {
            "DEFAULT": "rendering_mobile_017.wprgo"
        },
        "paper_icon_button": {
            "DEFAULT": "rendering_mobile_017.wprgo"
        },
        "paper_shadow": {
            "DEFAULT": "rendering_mobile_017.wprgo"
        },
        "paper_tabs": {
            "DEFAULT": "rendering_mobile_017.wprgo"
        },
        "paper_toggle_button": {
            "DEFAULT": "rendering_mobile_017.wprgo"
        },
        "parallax_effect": {
            "DEFAULT": "rendering_mobile_020.wprgo"
        },
        "particles": {
            "DEFAULT": "rendering_mobile_026.wprgo"
        },
        "pbs_pathological_2018": {
            "DEFAULT": "rendering_mobile_025.wprgo"
        },
        "physical_simulation": {
            "DEFAULT": "rendering_mobile_020.wprgo"
        },
        "pinterest_2018": {
            "DEFAULT": "rendering_mobile_000.wprgo"
        },
        "pinterest_desktop_gpu_raster_2018": {
            "DEFAULT": "rendering_mobile_000.wprgo"
        },
        "pinterest_mobile_2018": {
            "DEFAULT": "rendering_mobile_011.wprgo"
        },
        "polymer_topeka": {
            "DEFAULT": "rendering_mobile_024.wprgo"
        },
        "recode_pathological_2018": {
            "DEFAULT": "rendering_mobile_025.wprgo"
        },
        "reddit_mobile_2018": {
            "DEFAULT": "rendering_mobile_011.wprgo"
        },
        "runway_2019": {
            "DEFAULT": "rendering_mobile_4596353b1a.wprgo"
        },
        "san_angeles": {
            "DEFAULT": "rendering_mobile_026.wprgo"
        },
        "sfgate_mobile_2018": {
            "DEFAULT": "rendering_mobile_011.wprgo"
        },
        "skelebuddies_wasm_2020": {
            "DEFAULT": "rendering_mobile_fb80bbcb6f.wprgo"
        },
        "slashdot_mobile_2018": {
            "DEFAULT": "rendering_mobile_011.wprgo"
        },
        "smash_cat": {
            "DEFAULT": "rendering_mobile_004.wprgo"
        },
        "spielzeugz": {
            "DEFAULT": "rendering_mobile_004.wprgo"
        },
        "sticky_using_webkit": {
            "DEFAULT": "rendering_mobile_018.wprgo"
        },
        "svg_icon_raster": {
            "DEFAULT": "rendering_mobile_022.wprgo"
        },
        "swipe_to_dismiss": {
            "DEFAULT": "rendering_mobile_020.wprgo"
        },
        "techcrunch_2018": {
            "DEFAULT": "rendering_mobile_000.wprgo"
        },
        "techcrunch_desktop_gpu_raster_2018": {
            "DEFAULT": "rendering_mobile_000.wprgo"
        },
        "techcrunch_mobile_2018": {
            "DEFAULT": "rendering_mobile_011.wprgo"
        },
        "theverge_article_mobile_2018": {
            "DEFAULT": "rendering_mobile_012.wprgo"
        },
        "theverge_mobile_2018": {
            "DEFAULT": "rendering_mobile_011.wprgo"
        },
        "tiny_racing_v3_wasm_2020": {
            "DEFAULT": "rendering_mobile_fb80bbcb6f.wprgo"
        },
        "twitch_2018": {
            "DEFAULT": "rendering_mobile_000.wprgo"
        },
        "twitch_desktop_gpu_raster_2018": {
            "DEFAULT": "rendering_mobile_000.wprgo"
        },
        "twitch_mobile_pinch_2018": {
            "DEFAULT": "rendering_mobile_c47e7f29dd.wprgo"
        },
        "twitter_2018": {
            "DEFAULT": "rendering_mobile_000.wprgo"
        },
        "twitter_desktop_gpu_raster_2018": {
            "DEFAULT": "rendering_mobile_000.wprgo"
        },
        "twitter_mobile_2018": {
            "DEFAULT": "rendering_mobile_011.wprgo"
        },
        "usatoday_mobile_2018": {
            "DEFAULT": "rendering_mobile_011.wprgo"
        },
        "vertical_expansion": {
            "DEFAULT": "rendering_mobile_020.wprgo"
        },
        "wikipedia_2018": {
            "DEFAULT": "rendering_mobile_000.wprgo"
        },
        "wikipedia_delayed_scroll_start_2018": {
            "DEFAULT": "rendering_mobile_011.wprgo"
        },
        "wikipedia_desktop_gpu_raster_2018": {
            "DEFAULT": "rendering_mobile_000.wprgo"
        },
        "wikipedia_mobile_2018": {
            "DEFAULT": "rendering_mobile_011.wprgo"
        },
        "wordpress_2018": {
            "DEFAULT": "rendering_mobile_000.wprgo"
        },
        "wordpress_desktop_gpu_raster_2018": {
            "DEFAULT": "rendering_mobile_000.wprgo"
        },
        "wordpress_mobile_2018": {
            "DEFAULT": "rendering_mobile_011.wprgo"
        },
        "worldjournal_mobile_2018": {
            "DEFAULT": "rendering_mobile_011.wprgo"
        },
        "wow_wiki_pathological_2018": {
            "DEFAULT": "rendering_mobile_025.wprgo"
        },
        "wowwiki_mobile_2018": {
            "DEFAULT": "rendering_mobile_011.wprgo"
        },
        "wsj_mobile_2018": {
            "DEFAULT": "rendering_mobile_011.wprgo"
        },
        "yahoo_answers_2018": {
            "DEFAULT": "rendering_mobile_000.wprgo"
        },
        "yahoo_answers_desktop_gpu_raster_2018": {
            "DEFAULT": "rendering_mobile_000.wprgo"
        },
        "yahoo_answers_mobile_2018": {
            "DEFAULT": "rendering_mobile_011.wprgo"
        },
        "yahoo_news_2018": {
            "DEFAULT": "rendering_mobile_000.wprgo"
        },
        "yahoo_news_desktop_gpu_raster_2018": {
            "DEFAULT": "rendering_mobile_000.wprgo"
        },
        "yahoo_news_mobile_2018": {
            "DEFAULT": "rendering_mobile_011.wprgo"
        },
        "yahoo_sports_2018": {
            "DEFAULT": "rendering_mobile_000.wprgo"
        },
        "yahoo_sports_desktop_gpu_raster_2018": {
            "DEFAULT": "rendering_mobile_000.wprgo"
        },
        "yahoo_sports_mobile_pinch_2018": {
            "DEFAULT": "rendering_mobile_d00c7313f6.wprgo"
        },
        "yahoo_sports_pathological_2018": {
            "DEFAULT": "rendering_mobile_025.wprgo"
        },
        "youtube_2018": {
            "DEFAULT": "rendering_mobile_000.wprgo"
        },
        "youtube_desktop_gpu_raster_2018": {
            "DEFAULT": "rendering_mobile_000.wprgo"
        },
        "youtube_mobile_2018": {
            "DEFAULT": "rendering_mobile_011.wprgo"
        },
        "zdnet_pathological_2018": {
            "DEFAULT": "rendering_mobile_025.wprgo"
        },
        "zoom_in_animation": {
            "DEFAULT": "rendering_mobile_020.wprgo"
        }
    },
    "description": "Describes the Web Page Replay archives for a story set. Don't edit by hand! Use record_wpr for updating.",
    "platform_specific": true
}
