{
    "archives": {
        "tab_search:close_and_open:2020": {
            "DEFAULT": "tab_search_desktop_1b410a96cc.wprgo"
        },
        "tab_search:top100:2020": {
            "DEFAULT": "tab_search_desktop_1b410a96cc.wprgo"
        },
        "tab_search:top100:loading:2020": {
            "DEFAULT": "tab_search_desktop_1b410a96cc.wprgo"
        },
        "tab_search:top10:2020": {
            "DEFAULT": "tab_search_desktop_1b410a96cc.wprgo"
        },
        "tab_search:top10:loading:2020": {
            "DEFAULT": "tab_search_desktop_1b410a96cc.wprgo"
        },
        "tab_search:top50:2020": {
            "DEFAULT": "tab_search_desktop_1b410a96cc.wprgo"
        },
        "tab_search:top50:loading:2020": {
            "DEFAULT": "tab_search_desktop_1b410a96cc.wprgo"
        }
    },
    "description": "Describes the Web Page Replay archives for a story set. Don't edit by hand! Use record_wpr for updating.",
    "platform_specific": true
}